<svg xmlns="http://www.w3.org/2000/svg" width="18" height="16" viewBox="0 0 18 16">
    <defs>
        <clipPath id="a">
            <path fill="none" d="M0 .093h18v16H0z"/>
        </clipPath>
    </defs>
    <g clip-path="url(#a)" transform="translate(0 -.093)">
        <path d="M9.358 4.318H7.019a1.17 1.17 0 0 0-1.17 1.17v8.773a1.17 1.17 0 0 0 1.17 1.17h2.34a1.17 1.17 0 0 0 1.17-1.17V5.488a1.17 1.17 0 0 0-1.17-1.17m-2.34 1.17h2.34v8.773h-2.34ZM15.207.224h-2.34a1.17 1.17 0 0 0-1.167 1.17v12.867a1.17 1.17 0 0 0 1.17 1.17h2.34a1.17 1.17 0 0 0 1.17-1.17V1.394a1.17 1.17 0 0 0-1.173-1.17m-2.34 1.17h2.34v12.867h-2.34ZM3.509 8.412H1.17A1.17 1.17 0 0 0 0 9.582v4.679a1.17 1.17 0 0 0 1.17 1.17h2.34a1.17 1.17 0 0 0 1.17-1.17V9.582a1.17 1.17 0 0 0-1.17-1.17m-2.34 1.17h2.34v4.679H1.17Z"/>
    </g>
</svg>